[gd_scene load_steps=6 format=2]

[ext_resource path="res://Content/Textures/White_Circle_32.png" type="Texture" id=1]
[ext_resource path="res://Code/Utils/DragableNode.gd" type="Script" id=2]
[ext_resource path="res://Content/Shaders/unshaded_recolor.shader" type="Shader" id=3]

[sub_resource type="CircleShape2D" id=1]
radius = 5.0

[sub_resource type="ShaderMaterial" id=2]
shader = ExtResource( 3 )
shader_param/base_color = Color( 1, 1, 1, 1 )

[node name="DragableNode" type="Area2D"]
monitorable = false
collision_layer = 16
collision_mask = 0
script = ExtResource( 2 )

[node name="CollisionShape2D" type="CollisionShape2D" parent="."]
z_index = 100
shape = SubResource( 1 )

[node name="Sprite" type="Sprite" parent="."]
material = SubResource( 2 )
scale = Vector2( 0.8, 0.8 )
z_index = 100
texture = ExtResource( 1 )
